{
  "images" : [
    {
      "idiom" : "universal",
      "scale" : "1x",
      "language-direction" : "left-to-right"
    },
    {
      "idiom" : "universal",
      "scale" : "1x",
      "language-direction" : "right-to-left"
    },
    {
      "idiom" : "universal",
      "filename" : "phone_icon@2x-2.png",
      "language-direction" : "left-to-right",
      "scale" : "2x"
    },
    {
      "idiom" : "universal",
      "filename" : "phone_icon@2x-3.png",
      "language-direction" : "right-to-left",
      "scale" : "2x"
    },
    {
      "idiom" : "universal",
      "filename" : "phone_icon@3x.png",
      "language-direction" : "left-to-right",
      "scale" : "3x"
    },
    {
      "idiom" : "universal",
      "filename" : "phone_icon@3x-1.png",
      "language-direction" : "right-to-left",
      "scale" : "3x"
    }
  ],
  "info" : {
    "version" : 1,
    "author" : "xcode"
  }
}