{
  "images" : [
    {
      "idiom" : "universal",
      "scale" : "1x",
      "language-direction" : "left-to-right"
    },
    {
      "idiom" : "universal",
      "scale" : "1x",
      "language-direction" : "right-to-left"
    },
    {
      "idiom" : "universal",
      "filename" : "forward_arrow@2x-2.png",
      "language-direction" : "left-to-right",
      "scale" : "2x"
    },
    {
      "idiom" : "universal",
      "scale" : "2x",
      "language-direction" : "right-to-left"
    },
    {
      "idiom" : "universal",
      "filename" : "forward_arrow@3x.png",
      "language-direction" : "left-to-right",
      "scale" : "3x"
    },
    {
      "idiom" : "universal",
      "scale" : "3x",
      "language-direction" : "right-to-left"
    }
  ],
  "info" : {
    "version" : 1,
    "author" : "xcode"
  }
}